{
  "name": "Category",
  "base": "PersistedModel",
  "idInjection": true,
  "options": {},
  "mixins": {
    "TimeStamp": true
  },
  "properties": {
    "name": {
      "type": "string"
    },
    "status": {
      "type": "number",
      "description": "0: deleted, 1: active",
      "default": 1
    },
    "rank": {
      "type": "number"
    } 
  },
  "validations": [],
  "relations": {
    "qualities": {
      "type": "hasMany",
      "model": "Quality",
      "foreignKey": "categoryId"
    }
  },
  "acls": [],
  "methods": {}
}
