{
  "loopback-component-explorer": {
    "mountPath": "/explorer",
    "apiInfo": {
      "title": "Grumpeat",
      "description": "Description of APIs.",
      "contact": "apiteam@grumpeat.com",
      "license": "PRIVATE"
    }
  }
}
