{
  "restApiRoot": "/api",
  "host": "0.0.0.0",
  "port": 3000,
  "remoting": {
    "context": false,
    "rest": {
      "handleErrors": false,
      "normalizeHttpPath": false,
      "xml": false
    },
    "json": {
      "strict": false,
      "limit": "200mb"
    },
    "urlencoded": {
      "extended": true,
      "limit": "200mb"
    },
    "cors": false
  },
  "mail": {
    "from": "Grumpeat <team.test.mint@gmail.com>"
  },
  "foursquare": {
    "client_id": "2CIIX25YFIROK3Q3ELPIEJSMMQ1LEMXI4DKLHM0W2S11LALA",
    "client_secret": "PM2HGQWS3HDW2W1LXM5BQLTOZKAEA1NAOETZCVHZETNXRM4F"
  },
  "onesignal": {
    "appId": "80da5c93-c27e-4a41-8263-53dc2fd4e94b",
    "apiKey": "Y2VlYTY4YjItYTEzOS00NmE1LTg0MGQtZTYxNjE3NGFjZGM1",
    "debug": true
  },
  "googlePlace": {
    "apiKey": "AIzaSyDpBfWOWVKlsqA1GAxTjk34JBSBkoZ5NNo"
  }
}
